fitzRoy - 0.1.5 release | A Day at a time
…
Note that each row is a ‘player match’ so the first few columns are just repeated team level data. It is probably more intersting to look at specific columns relating to player stats.

dat %>% 
  select(Date, First.name, Surname, Playing.for, Contested.Possessions, 
         Uncontested.Possessions, One.Percenters, Time.on.Ground.., 
         Brownlow.Votes)

## # A tibble: 20,548 x 9
##    Date       First.name Surname Playing.for Contested.Posse… Uncontested.Pos…
##    <date>     <chr>      <chr>   <chr>                  <dbl>            <dbl>
##  1 2018-03-22 David      Astbury Richmond                   9                8
##  2 2018-03-22 Shai       Bolton  Richmond                   3                3
##  3 2018-03-22 Dan        Butler  Richmond                   7                6
##  4 2018-03-22 Josh       Caddy   Richmond                  11               10
##  5 2018-03-22 Jason      Castag… Richmond                   7                8
##  6 2018-03-22 Reece      Conca   Richmond                   6               10
##  7 2018-03-22 Trent      Cotchin Richmond                  13               12
##  8 2018-03-22 Shane      Edwards Richmond                   9                7
##  9 2018-03-22 Brandon    Ellis   Richmond                   3               14
## 10 2018-03-22 Corey      Ellis   Richmond                   7                6
## # … with 20,538 more rows, and 3 more variables: One.Percenters <dbl>,
## #   Time.on.Ground.. <dbl>, Brownlow.Votes <dbl>
…
